FlyParagonCharacter/Binaries/Win64/FlyParagonCharacter-Win64-Shipping.exe	2020-11-01T23:20:08.169Z
Engine/Binaries/ThirdParty/Oculus/OVRPlugin/OVRPlugin/Win64/OVRPlugin.dll	2020-11-01T20:36:05.205Z
Engine/Binaries/ThirdParty/DbgHelp/dbghelp.dll	2020-11-01T20:35:04.658Z
Engine/Binaries/ThirdParty/PhysX3/Win64/VS2015/PxFoundation_x64.dll	2020-11-01T20:36:31.686Z
Engine/Binaries/ThirdParty/PhysX3/Win64/VS2015/PxPvdSDK_x64.dll	2020-11-01T20:36:31.692Z
Engine/Binaries/ThirdParty/PhysX3/Win64/VS2015/PhysX3_x64.dll	2020-11-01T20:36:31.551Z
Engine/Binaries/ThirdParty/PhysX3/Win64/VS2015/PhysX3Cooking_x64.dll	2020-11-01T20:36:31.630Z
Engine/Binaries/ThirdParty/PhysX3/Win64/VS2015/PhysX3Common_x64.dll	2020-11-01T20:36:31.588Z
Engine/Binaries/ThirdParty/PhysX3/Win64/VS2015/APEX_Clothing_x64.dll	2020-11-01T20:36:19.826Z
Engine/Binaries/ThirdParty/PhysX3/Win64/VS2015/APEX_Legacy_x64.dll	2020-11-01T20:36:19.925Z
Engine/Binaries/ThirdParty/PhysX3/Win64/VS2015/ApexFramework_x64.dll	2020-11-01T20:36:23.522Z
Engine/Binaries/ThirdParty/PhysX3/Win64/VS2015/APEX_Destructible_x64.dll	2020-11-01T20:36:19.865Z
Engine/Binaries/ThirdParty/PhysX3/Win64/VS2015/NvCloth_x64.dll	2020-11-01T20:36:28.589Z
Engine/Binaries/ThirdParty/Ogg/Win64/VS2015/libogg_64.dll	2020-11-01T20:36:05.208Z
Engine/Binaries/ThirdParty/Vorbis/Win64/VS2015/libvorbis_64.dll	2020-11-01T20:36:45.497Z
Engine/Binaries/ThirdParty/Vorbis/Win64/VS2015/libvorbisfile_64.dll	2020-11-01T20:36:45.497Z
Engine/Binaries/ThirdParty/NVIDIA/NVaftermath/Win64/GFSDK_Aftermath_Lib.x64.dll	2020-11-01T20:35:55.736Z
Engine/Binaries/ThirdParty/OpenVR/OpenVRv1_5_17/Win64/openvr_api.dll	2020-11-01T20:36:05.228Z
Engine/Binaries/ThirdParty/Windows/XAudio2_9/x64/xaudio2_9redist.dll	2020-11-01T20:36:53.690Z
FlyParagonCharacter.exe	2020-11-01T23:26:29.131Z
